[gd_scene load_steps=6 format=2]

[ext_resource path="res://scenes/Ally.tscn" type="PackedScene" id=1]
[ext_resource path="res://scenes/Player.tscn" type="PackedScene" id=2]
[ext_resource path="res://scripts/BulletManager.gd" type="Script" id=3]
[ext_resource path="res://scripts/Main.gd" type="Script" id=4]
[ext_resource path="res://scenes/Enemy.tscn" type="PackedScene" id=5]

[node name="Main" type="Node2D"]
script = ExtResource( 4 )

[node name="Player" parent="." instance=ExtResource( 2 )]
position = Vector2( 72, 176 )

[node name="Enemy" parent="." instance=ExtResource( 5 )]
position = Vector2( 560, 304 )

[node name="Enemy2" parent="." instance=ExtResource( 5 )]
position = Vector2( 496, 189 )

[node name="Enemy3" parent="." instance=ExtResource( 5 )]
position = Vector2( 344, 328 )

[node name="Ally" parent="." instance=ExtResource( 1 )]
position = Vector2( 104, 296 )

[node name="Ally2" parent="." instance=ExtResource( 1 )]
position = Vector2( 280, 88 )

[node name="BulletManager" type="Node2D" parent="."]
script = ExtResource( 3 )
__meta__ = {
"_editor_description_": "This Node2d contains bullets as children, but doesn't do anything itself visibly."
}
