[gd_scene load_steps=2 format=2]

[ext_resource path="res://scripts/share/Health_node2D.gd" type="Script" id=1]

[node name="Health_node2D" type="Node2D"]
position = Vector2( -128, -72 )
script = ExtResource( 1 )
